module example/user/hello

go 1.20

require (
	github.com/dgrijalva/jwt-go v3.2.0+incompatible
	github.com/gin-gonic/gin v1.9.1
	github.com/go-playground/validator/v10 v10.14.1
	github.com/google/go-cmp v0.5.9
	github.com/jinzhu/gorm v1.9.16
	github.com/swaggo/files v1.0.1
	github.com/swaggo/gin-swagger v1.6.0
	github.com/swaggo/swag v1.16.1
)

require (
	github.com/KyleBanks/depth v1.2.1 // indirect
	github.com/bytedance/sonic v1.10.0-rc2 // indirect
	github.com/cespare/xxhash/v2 v2.2.0 // indirect
	github.com/chenzhuoyu/base64x v0.0.0-20230717121745-296ad89f973d // indirect
	github.com/chenzhuoyu/iasm v0.9.0 // indirect
	github.com/dgryski/go-rendezvous v0.0.0-20200823014737-9f7001d12a5f // indirect
	github.com/fsnotify/fsnotify v1.4.9 // indirect
	github.com/gabriel-vasile/mimetype v1.4.2 // indirect
	github.com/gin-contrib/sse v0.1.0 // indirect
	github.com/go-openapi/jsonpointer v0.20.0 // indirect
	github.com/go-openapi/jsonreference v0.20.2 // indirect
	github.com/go-openapi/spec v0.20.9 // indirect
	github.com/go-openapi/swag v0.22.4 // indirect
	github.com/go-playground/locales v0.14.1 // indirect
	github.com/go-playground/universal-translator v0.18.1 // indirect
	github.com/go-redis/redis v6.15.9+incompatible // indirect
	github.com/goccy/go-json v0.10.2 // indirect
	github.com/golang-jwt/jwt/v4 v4.5.0 // indirect
	github.com/golang/snappy v0.0.1 // indirect
	github.com/jackc/pgpassfile v1.0.0 // indirect
	github.com/jackc/pgservicefile v0.0.0-20221227161230-091c0ba34f0a // indirect
	github.com/jackc/pgx/v5 v5.3.1 // indirect
	github.com/jinzhu/inflection v1.0.0 // indirect
	github.com/jinzhu/now v1.1.5 // indirect
	github.com/joho/godotenv v1.5.1 // indirect
	github.com/josharian/intern v1.0.0 // indirect
	github.com/json-iterator/go v1.1.12 // indirect
	github.com/klauspost/compress v1.13.6 // indirect
	github.com/klauspost/cpuid/v2 v2.2.5 // indirect
	github.com/leodido/go-urn v1.2.4 // indirect
	github.com/mailru/easyjson v0.7.7 // indirect
	github.com/mattn/go-isatty v0.0.19 // indirect
	github.com/mattn/go-sqlite3 v1.14.0 // indirect
	github.com/modern-go/concurrent v0.0.0-20180306012644-bacd9c7ef1dd // indirect
	github.com/modern-go/reflect2 v1.0.2 // indirect
	github.com/montanaflynn/stats v0.0.0-20171201202039-1bf9dbcd8cbe // indirect
	github.com/nxadm/tail v1.4.8 // indirect
	github.com/onsi/ginkgo v1.16.5 // indirect
	github.com/onsi/gomega v1.27.10 // indirect
	github.com/pelletier/go-toml/v2 v2.0.9 // indirect
	github.com/redis/go-redis/v9 v9.0.5 // indirect
	github.com/rogpeppe/go-internal v1.11.0 // indirect
	github.com/twitchyliquid64/golang-asm v0.15.1 // indirect
	github.com/ugorji/go/codec v1.2.11 // indirect
	github.com/xdg-go/pbkdf2 v1.0.0 // indirect
	github.com/xdg-go/scram v1.1.2 // indirect
	github.com/xdg-go/stringprep v1.0.4 // indirect
	github.com/youmark/pkcs8 v0.0.0-20181117223130-1be2e3e5546d // indirect
	go.mongodb.org/mongo-driver v1.12.0 // indirect
	golang.org/x/arch v0.4.0 // indirect
	golang.org/x/crypto v0.11.0 // indirect
	golang.org/x/net v0.12.0 // indirect
	golang.org/x/sync v0.3.0 // indirect
	golang.org/x/sys v0.10.0 // indirect
	golang.org/x/text v0.11.0 // indirect
	golang.org/x/tools v0.11.0 // indirect
	google.golang.org/protobuf v1.31.0 // indirect
	gopkg.in/tomb.v1 v1.0.0-20141024135613-dd632973f1e7 // indirect
	gopkg.in/yaml.v3 v3.0.1 // indirect
	gorm.io/driver/postgres v1.5.2 // indirect
	gorm.io/gorm v1.25.2 // indirect
)
