{
    "swagger": "2.0",
    "info": {
        "contact": {}
    },
    "paths": {
        "/auth/token": {
            "post": {
                "description": "Authenticates a user and provides a JWT to Authorize API calls",
                "produces": [
                    "application/json"
                ],
                "summary": "Provides a JSON Web Token",
                "operationId": "Authentication",
                "parameters": [
                    {
                        "type": "string",
                        "description": "Username",
                        "name": "username",
                        "in": "formData",
                        "required": true
                    },
                    {
                        "type": "string",
                        "description": "Password",
                        "name": "password",
                        "in": "formData",
                        "required": true
                    }
                ],
                "responses": {
                    "200": {
                        "description": "OK",
                        "schema": {
                            "$ref": "#/definitions/dto.JWT"
                        }
                    },
                    "401": {
                        "description": "Unauthorized",
                        "schema": {
                            "$ref": "#/definitions/dto.Response"
                        }
                    }
                }
            }
        },
        "/videos": {
            "get": {
                "security": [
                    {
                        "bearerAuth": []
                    }
                ],
                "description": "Get all the existing videos",
                "consumes": [
                    "application/json"
                ],
                "produces": [
                    "application/json"
                ],
                "tags": [
                    "videos",
                    "list"
                ],
                "summary": "List existing videos",
                "responses": {
                    "200": {
                        "description": "OK",
                        "schema": {
                            "type": "array",
                            "items": {
                                "$ref": "#/definitions/entity.Video"
                            }
                        }
                    },
                    "401": {
                        "description": "Unauthorized",
                        "schema": {
                            "$ref": "#/definitions/dto.Response"
                        }
                    }
                }
            },
            "post": {
                "security": [
                    {
                        "bearerAuth": []
                    }
                ],
                "description": "Create a new video",
                "consumes": [
                    "application/json"
                ],
                "produces": [
                    "application/json"
                ],
                "tags": [
                    "videos",
                    "create"
                ],
                "summary": "Create new videos",
                "parameters": [
                    {
                        "description": "Create video",
                        "name": "video",
                        "in": "body",
                        "required": true,
                        "schema": {
                            "$ref": "#/definitions/entity.Video"
                        }
                    }
                ],
                "responses": {
                    "200": {
                        "description": "OK",
                        "schema": {
                            "$ref": "#/definitions/dto.Response"
                        }
                    },
                    "400": {
                        "description": "Bad Request",
                        "schema": {
                            "$ref": "#/definitions/dto.Response"
                        }
                    },
                    "401": {
                        "description": "Unauthorized",
                        "schema": {
                            "$ref": "#/definitions/dto.Response"
                        }
                    }
                }
            }
        },
        "/videos/{id}": {
            "put": {
                "security": [
                    {
                        "bearerAuth": []
                    },
                    {
                        "bearerAuth": []
                    }
                ],
                "description": "Update a single video",
                "consumes": [
                    "application/json"
                ],
                "produces": [
                    "application/json"
                ],
                "tags": [
                    "videos"
                ],
                "summary": "Update videos",
                "parameters": [
                    {
                        "type": "integer",
                        "description": "Video ID",
                        "name": "id",
                        "in": "path",
                        "required": true
                    },
                    {
                        "description": "Update video",
                        "name": "video",
                        "in": "body",
                        "required": true,
                        "schema": {
                            "$ref": "#/definitions/entity.Video"
                        }
                    }
                ],
                "responses": {
                    "200": {
                        "description": "OK",
                        "schema": {
                            "$ref": "#/definitions/dto.Response"
                        }
                    },
                    "400": {
                        "description": "Bad Request",
                        "schema": {
                            "$ref": "#/definitions/dto.Response"
                        }
                    },
                    "401": {
                        "description": "Unauthorized",
                        "schema": {
                            "$ref": "#/definitions/dto.Response"
                        }
                    }
                }
            },
            "delete": {
                "security": [
                    {
                        "bearerAuth": []
                    },
                    {
                        "bearerAuth": []
                    }
                ],
                "description": "Delete a single video",
                "consumes": [
                    "application/json"
                ],
                "produces": [
                    "application/json"
                ],
                "tags": [
                    "videos"
                ],
                "summary": "Remove videos",
                "parameters": [
                    {
                        "type": "integer",
                        "description": "Video ID",
                        "name": "id",
                        "in": "path",
                        "required": true
                    }
                ],
                "responses": {
                    "200": {
                        "description": "OK",
                        "schema": {
                            "$ref": "#/definitions/dto.Response"
                        }
                    },
                    "400": {
                        "description": "Bad Request",
                        "schema": {
                            "$ref": "#/definitions/dto.Response"
                        }
                    },
                    "401": {
                        "description": "Unauthorized",
                        "schema": {
                            "$ref": "#/definitions/dto.Response"
                        }
                    }
                }
            }
        }
    },
    "definitions": {
        "dto.JWT": {
            "type": "object",
            "properties": {
                "token": {
                    "type": "string"
                }
            }
        },
        "dto.Response": {
            "type": "object",
            "properties": {
                "message": {
                    "type": "string"
                }
            }
        },
        "entity.Person": {
            "type": "object",
            "required": [
                "email",
                "firstname",
                "lastname"
            ],
            "properties": {
                ":id": {
                    "type": "integer"
                },
                "age": {
                    "type": "integer",
                    "maximum": 130,
                    "minimum": 1
                },
                "email": {
                    "type": "string"
                },
                "firstname": {
                    "type": "string"
                },
                "lastname": {
                    "type": "string"
                }
            }
        },
        "entity.Video": {
            "type": "object",
            "required": [
                "author",
                "url"
            ],
            "properties": {
                ":id": {
                    "type": "integer"
                },
                "author": {
                    "$ref": "#/definitions/entity.Person"
                },
                "description": {
                    "type": "string",
                    "maxLength": 100
                },
                "title": {
                    "type": "string",
                    "maxLength": 100,
                    "minLength": 2
                },
                "url": {
                    "type": "string"
                }
            }
        }
    }
}